{
  "images" : [
    {
      "idiom" : "universal",
      "filename" : "339928ca9e9a8918aa2018ebc6f0a6c5--james-franco-james-darcy.jpg",
      "scale" : "1x"
    },
    {
      "idiom" : "universal",
      "scale" : "2x"
    },
    {
      "idiom" : "universal",
      "scale" : "3x"
    }
  ],
  "info" : {
    "version" : 1,
    "author" : "xcode"
  }
}